{
  "schemaVersion": 1,
  "id": "eutomato",
  "version": "${version}",

  "name": "Eutomato",
  "description": "This is an example description! Tell everyone what your mod is about!",
  "authors": [
    "Me!"
  ],
  "contact": {
    "homepage": "https://fabricmc.net/",
    "sources": "https://github.com/FabricMC/fabric-example-mod"
  },

  "license": "CC0-1.0",
  "icon": "assets/mechinc/icon.png",

  "environment": "*",
  "entrypoints": {
    "main": [
      "inc.industries.eutomato.Eutomato"
    ],
    "client": [
      "inc.industries.eutomato.EutomatoClient"
    ]
  },
  "mixins": [
    "modid.mixins.json"
  ],

  "depends": {
    "fabricloader": ">=0.11.3",
    "fabric": "*",
    "minecraft": "1.17.x",
    "java": ">=16"
  },
  "suggests": {
    "another-mod": "*"
  }
}
